Code EPCI;Nom de l'EPCI;Numéro département
247300668;CC du Lac d'Aiguebelette (Ccla);73
200039808;CC des Gorges de l'Ardèche;7
244301107;CC du Haut-Lignon;43
200066660;CC de Saint-Flour;15
200070761;CC Ambert Livradois Forez;63
200067890;CC Morvan Sommets et Grands Lacs;58
242504488;CC Altitude 800;25
243900719;CC du Pays des Lacs;39
200041853;CC du Pays de Montbozon et du Chanois;70
242504447;CC du Doubs Baumois;25
200070902;CC Auxonne Pontailler Val de Saône;21
200071926;CC du Limouxin;11
200066744;CC Haute-Corrèze Communauté;19
200070720;CC Médoc Atlantique;33
200030674;CA Val de Garonne Agglomération;47
200068104;CA de la Provence Verte;83
247000706;CC du Pays Riolais;70
247000821;CC Rahin et Cherimont;70
200043602;CC des Albères, de la Côte Vermeille et de l'Illibéris;66
248900938;CC du Jovinien;89
200067890;CC Morvan Sommets et Grands Lacs;58
200068096;CC Champsaur-Valgaudemar;5
200066157;CC de Commercy - Void - Vaucouleurs;55
200071017;CC des Terres d'Auxois;21
242500361;CA du Grand Besançon;25
200039055;CC Ouche et Montagne;21
200071173;CC du Pays Arnay Liernais;21
246800577;CC du Pays de Ribeauvillé;68
200072056;CC Porte du Jura;39
200070761;CC Ambert Livradois Forez;63
200071215;CC Chavanon Combrailles et Volcans;63
200067049;CC Spelunca-Liamone;2A
246300966;CC du Massif du Sancy;63
200042463;CC de la Montagne Noire;11
200035863;CC Région Lézignanaise, Corbières et Minervois;11
243500782;CA du Pays de Saint-Malo - Saint-Malo Agglomération;35
200067593;CC Marche et Combraille en Aquitaine;23
242101442;CC de Saulieu;21
247100290;CU Le Creusot Montceau-les-Mines;71
200070324;CC du Territoire de Lunéville à Baccarat;54
200072999;CC du Grand Langres;52
246700744;CC des Portes de Rosheim;67
243800745;CC de l'Oisans;38
200040715;Métropole Grenoble-Alpes-Métropole;38
200073419;CA du Puy-en-Velay;43
240900431;CC du Pays de Tarascon;9
248719262;CC Gartempe - Saint-Pardoux;87
200069631;CC Terres de Chalosse;40
200069169;CC Dômes Sancy Artense;63
200071066;CA de Saint-Dié-Des-Vosges;88
200071066;CA de Saint-Dié-Des-Vosges;88
200071595;CC Arbois, Poligny, Salins, Coeur du Jura;39
200036150;CC des Hauts du Val de Saône;70
244000691;CC du Pays Morcenais;40
200070530;CC du Grand Autunois Morvan;71
200071017;CC des Terres d'Auxois;21
200040137;CC des Lacs de Champagne;10
200033025;CA de Bar-le-Duc - Sud Meuse;55
200040178;CC de l'Outre-Forêt;67
200067783;CC de Hanau-la Petite Pierre;67
200067429;CC Haut Nivernais-Val d'Yonne;58
248900524;CC de l'Aillantais;89
200039642;CC Le Tonnerrois en Bourgogne;89
200067080;CC Chablis, Villages et Terroirs;89
200066660;CC de Saint-Flour;15
200054807;Métropole d’Aix-Marseille-Provence;13
240100883;CC de la Plaine de l'Ain;1
200071751;CA du Bassin de Bourg-en-Bresse;1
200073419;CA du Puy-en-Velay;43
200070761;CC Ambert Livradois Forez;63
200033827;CC de Fium'orbu Castellu;2B
200066157;CC de Commercy - Void - Vaucouleurs;55
245701206;CC du Saulnois;57
240200469;CC du Pays de la Serre;2
200069631;CC Terres de Chalosse;40
246500573;CC Aure-Louron;65
200067130;CC de Puisaye-Forterre;58
200068088;CC Les Bertranges;58
200067684;CA Épernay, Coteaux et Plaine de Champagne;51
242101509;CC Rives de Saône;21
242101491;CC du Montbardois;21
242101434;CC du Pays Châtillonnais;21
242500361;CA du Grand Besançon;25
200067437;CA Provence-Alpes-Agglomération;4
200067445;CC Buëch-Dévoluy;5
247300361;CC du Canton de la Chambre;73
200069169;CC Dômes Sancy Artense;63
200066637;CC Hautes Terres;15
200073419;CA du Puy-en-Velay;43
241501055;CC Sumène - Artense;15
200035202;CC Charlieu-Belmont;42
200070761;CC Ambert Livradois Forez;63
200049211;CC Conflent-Canigó;66
200035756;CC Astarac Arros en Gascogne;32
200054807;Métropole d’Aix-Marseille-Provence;13
200069037;CA du Pays de Saint-Omer;62
200043776;CC Pyrénées Audoises;11
200069128;CC Mont Lozère;48
200037133;CC du Provinois;77
244301123;CC des Pays de Cayres et de Pradelles;43
200073419;CA du Puy-en-Velay;43
200000172;CC Faucigny-Glières;74
200071215;CC Chavanon Combrailles et Volcans;63
200070407;CA Pays d'Issoire;63
200066793;CA du Grand Annecy;74
245701206;CC du Saulnois;57
245501176;CC du Territoire de Fresnes-en-Woëvre;55
200066173;CC de Damvillers Spincourt;55
200027308;CC d'Auberive Vingeanne et Montsaugeonnais;52
200067643;CC Meurthe, Mortagne, Moselle;54
200066041;CC Sundgau;68
200041622;CC Ardennes Thiérache;8
200069052;CA Grand Belfort;90
242101434;CC du Pays Châtillonnais;21
200068294;CC des Deux Vallées Vertes;25
200071645;CC Saint Cyr Mère Boitier entre Charolais et Mâconnais;71
200069698;CC Mâconnais - Tournugeois;71
200067692;CC Tannay-Brinon-Corbigny;58
200067106;CA du Pays Basque;64
200066512;CC Élan Limousin Avenir Nature;87
200059392;CC Bièvre Isère;38
200073419;CA du Puy-en-Velay;43
200069102;CC Randon - Margeride;48
200069912;CC des Forêts du Perche;28
200041879;CC Terres de Saône;70
200039949;CC Rives de Moselle;57
200070290;CC Cœur du Pays Haut;54
200068112;CC du Pays de Saverne;67
200026573;CC Haut-Jura Saint-Claude;39
200041853;CC du Pays de Montbozon et du Chanois;70
200071017;CC des Terres d'Auxois;21
200070902;CC Auxonne Pontailler Val de Saône;21
200068625;CC Alpes-Provence-Verdon sources de Lumière;4
200069656;CC Coeur Haute Lande;40
200069300;CA Tarbes-Lourdes-Pyrénées;65
200066744;CC Haute-Corrèze Communauté;19
200066918;CA Alès Agglomération;30
247400567;CC Fier et Usses;74
200067031;CC Côte Ouest Centre Manche;50
200065886;CA Loire Forez Agglomération (LFA);42
246600399;CC Pyrénées Cerdagne;66
200067163;CC Monts, Rance et Rougier;12
200068484;CC des Causses à l'Aubrac;12
200066926;CA Grand Auch Coeur de Gascogne;32
243200409;CC du Bas Armagnac;32
200067742;CC Serre-Ponçon;5
241500255;CC du Pays Gentiane;15
247104094;CC Sud Côte Chalonnaise;71
200006682;CA Beaune, Côte et Sud - Communauté Beaune-Chagny-Nolay;21
200067213;CU du Grand Reims;8
200067643;CC Meurthe, Mortagne, Moselle;54
246700306;CC de la Vallée de la Bruche;67
242100410;Dijon Métropole;21
200067890;CC Morvan Sommets et Grands Lacs;58
200043693;CC Terre Lorraine du Longuyonnais;54
200070324;CC du Territoire de Lunéville à Baccarat;54
200068070;CC Loue-Lison;25
200068070;CC Loue-Lison;25
200071116;CA Ecla (Espace Communautaire Lons Agglomération);39
200069615;CC Bresse Haute Seille;39
200069664;CC Meuse Rognon;52
200071595;CC Arbois, Poligny, Salins, Coeur du Jura;39
200072056;CC Porte du Jura;39
200067841;CC de l'Alsace Bossue;67
245400171;CC Moselle et Madon;54
246500573;CC Aure-Louron;65
200066744;CC Haute-Corrèze Communauté;23
200066512;CC Élan Limousin Avenir Nature;87
200039204;CC de Lacq-Orthez;64
200041499;CC Aunis Atlantique;17
200042174;CA Lorient Agglomération;56
200068765;CC du Sisteronais-Buëch;5
200069052;CA Grand Belfort;90
200069565;CC des Lacs et Montagnes du Haut-Doubs;25
200068146;CC Sarrebourg Moselle Sud;57
200040715;Métropole Grenoble-Alpes-Métropole;38
200077014;CA Vienne Condrieu;38
200040624;CC Pays d'Apt-Luberon;84
200042935;CA Haut - Bugey Agglomération;1
200073419;CA du Puy-en-Velay;43
200041010;CC Coeur de Savoie;73
200067551;CA Thonon Agglomération;74
200046977;Métropole de LYON;69
200041283;CC de la Plaine du Rhin;67
246701064;CC de la Région de Molsheim-Mutzig;67
200066660;CC de Saint-Flour;15
200069169;CC Dômes Sancy Artense;63
200066660;CC de Saint-Flour;15
200073393;CC des Rives du Haut-Allier;43
200073419;CA du Puy-en-Velay;43
200066660;CC de Saint-Flour;15
200066645;CC Vézère-Monédières-Millesources;19
200017341;CC Lodévois et Larzac;34
247103765;CC Entre Saône et Grosne;71
200042190;CA de la Porte du Hainaut;59
242500320;CC de Montbenoît;25
242500361;CA du Grand Besançon;25
200036549;CC Val de Gray;70
200068369;CC de Mirecourt Dompaire;88
242504371;CC du Pays de Sancey-Belleherbe;25
200068682;CC Terre d'Eau;88
200066157;CC de Commercy - Void - Vaucouleurs;55
200000172;CC Faucigny-Glières;74
200066108;CC des Portes de Meuse;55
246300966;CC du Massif du Sancy;63
200068229;CC des Baronnies en Drôme Provençale;26
200067692;CC Tannay-Brinon-Corbigny;58
200067890;CC Morvan Sommets et Grands Lacs;58
200067130;CC de Puisaye-Forterre;89
242101509;CC Rives de Saône;21
246700306;CC de la Vallée de la Bruche;67
200067544;CC Creuse Confluence;23
200066751;CC Xaintrie Val'dordogne;19
248600413;CA Grand Châtellerault;86
243301264;CC de Montesquieu;33
200067254;CA Pau Béarn Pyrénées;64
200044253;CC du Bassin de Joinville en Champagne;52
200068658;CA de Chaumont, du Bassin Nogentais et du Bassin de Bologne Vignory Froncles;52
200068369;CC de Mirecourt Dompaire;88
200041283;CC de la Plaine du Rhin;67
200040715;Métropole Grenoble-Alpes-Métropole;38
200041010;CC Coeur de Savoie;73
200069110;CA du Grand Chambéry;73
247400617;CC des Vallées de Thônes;74
200072098;CC Combrailles Sioule et Morge;63
200066660;CC de Saint-Flour;15
241500255;CC du Pays Gentiane;15
247000011;CA de Vesoul;70
200036549;CC Val de Gray;70
242101491;CC du Montbardois;21
242500361;CA du Grand Besançon;25
200068070;CC Loue-Lison;25
200069698;CC Mâconnais - Tournugeois;71
200067304;CC Serein et Armance;89
248300410;CC de la Vallée du Gapeau;83
200072643;CC Coeur et Coteaux du Comminges;31
241800374;CC La Septaine;18
244000873;CC des Grands Lacs;40
200067478;CC Comtal Lot et Truyère;12
200067692;CC Tannay-Brinon-Corbigny;58
200067908;CC Amognes Coeur du Nivernais;58
245400676;Métropole du Grand Nancy;54
200066140;CC de l'Aire à l'Argonne;55
200066157;CC de Commercy - Void - Vaucouleurs;55
246800585;CC de la Vallée de Munster;68
200041630;CA Ardenne Métropole;8
240800847;CC des Portes du Luxembourg;8
200042703;CC de l'Argonne Champenoise;51
200073146;CC Cagire Garonne Salat;31
200066363;CC de la Haute Ariège;9
200067791;CA Pays Foix-Varilhes;9
200072635;CC Pyrénées Haut Garonnaises;31
200069185;CC des Terres d'Apcher-Margeride-Aubrac;48
200071595;CC Arbois, Poligny, Salins, Coeur du Jura;39
242101434;CC du Pays Châtillonnais;21
200069623;CC Champagnole Nozeroy Jura;39
247000623;CC des Quatre Rivières;70
200059889;CU Grand Paris Seine et Oise;78
242010056;CA du Pays Ajaccien;2A
200040657;CC de la Matheysine;38
200018166;CC Le Grésivaudan;38
246300701;Clermont Auvergne Métropole;63
200035731;CA Roannais Agglomération;42
200066660;CC de Saint-Flour;15
200073419;CA du Puy-en-Velay;43
200071215;CC Chavanon Combrailles et Volcans;63
200068815;CC Coeur de Garonne;31
243400355;CC du Clermontais;34
200040350;CC Bugey Sud;1
241800424;CC Le Dunois;18
200071025;CC Haute-Provence-Pays de Banon;4
200068765;CC du Sisteronais-Buëch;4
200068658;CA de Chaumont, du Bassin Nogentais et du Bassin de Bologne Vignory Froncles;52
200067890;CC Morvan Sommets et Grands Lacs;58
200067379;CC Côtes de Champagne et Val de Saulx;51
245701404;CC du Pays Haut Val d'Alzette;57
200066116;CC Argonne-Meuse;55
200041879;CC Terres de Saône;70
200069060;CC des Vosges du Sud;90
200069052;CA Grand Belfort;90
200033173;CC de la Haute Vallée de Chevreuse;78
200059889;CU Grand Paris Seine et Oise;78
200069110;CA du Grand Chambéry;73
200066660;CC de Saint-Flour;15
200066678;CC de la Châtaigneraie Cantalienne;15
200067957;CC Haut Chemin-Pays de Pange;57
200071314;CC des Hauts-Tolosans;31
200068815;CC Coeur de Garonne;31
200072106;CC Adour Madiran;65
200034411;CC du Piémont Cévenol;30
200066348;CC du Minervois au Caroux;34
200041861;CC du Triangle Vert;70
200065647;CA Pays de Montbéliard Agglomération;25
242504116;CC du Val de Morteau;25
242500361;CA du Grand Besançon;25
200068294;CC des Deux Vallées Vertes;25
242100410;Dijon Métropole;21
242100154;CC des Vallées de la Tille et de l'Ignon;21
248300493;CA Dracénoise;83
200069110;CA du Grand Chambéry;73
241501055;CC Sumène - Artense;15
200070589;CC de Seille et Grand Couronné;54
245700133;CC du District Urbain de Faulquemont (Duf);57
200044253;CC du Bassin de Joinville en Champagne;52
200027308;CC d'Auberive Vingeanne et Montsaugeonnais;52
200072304;CC Vallée de l'Ubaye - Serre-Ponçon;4
200043263;CC Coeur de l'Avesnois;59
242500361;CA du Grand Besançon;25
200069052;CA Grand Belfort;90
200069615;CC Bresse Haute Seille;39
243900412;CC Jura Sud;39
200066348;CC du Minervois au Caroux;34
200069151;CC Gorges Causses Cévennes;48
200035541;CC des Landes d'Armagnac;40
200072106;CC Adour Madiran;65
200041010;CC Coeur de Savoie;73
200066348;CC du Minervois au Caroux;34
247300528;CC Val Guiers;73
200068674;CA Grand Lac;73
200066710;CC Cingal-Suisse Normande;14
200067437;CA Provence-Alpes-Agglomération;4
244300307;CC du Pays de Montfaucon;43
200034205;CC de la Costa Verde;2B
200071173;CC du Pays Arnay Liernais;21
200070902;CC Auxonne Pontailler Val de Saône;21
242504496;CC du Plateau de Frasne et du Val de Drugeon (Cfd);39
247000623;CC des Quatre Rivières;70
200067262;CC du Haut-Béarn;64
246400337;CC de la Vallée d'Ossau;64
200066744;CC Haute-Corrèze Communauté;19
200072320;CC Val de Gers;32
200067106;CA du Pays Basque;64
200066751;CC Xaintrie Val'dordogne;19
200033868;CC des Ballons des Hautes-Vosges;88
244800405;CC Coeur de Lozère;48
200068997;CA Arlysère;73
244200622;CC des Monts du Pilat;42
200073419;CA du Puy-en-Velay;43
200000933;CC Sauldre et Sologne;18
241800507;CA Bourges Plus;18
245400601;CC du Bassin de Pompey;54
200066033;CC Sud Alsace Largue;68
200040202;CC Provence Verdon;83
200035723;CC Ventoux Sud;84
246800494;CC du Pays de Rouffach, Vignobles et Châteaux;68
200069151;CC Gorges Causses Cévennes;48
200067437;CA Provence-Alpes-Agglomération;4
200069151;CC Gorges Causses Cévennes;48
200070787;CC du Plateau de Lannemezan;65
246500573;CC Aure-Louron;65
200072007;CC de la Montagne d'Ardèche;7
200041010;CC Coeur de Savoie;73
200070761;CC Ambert Livradois Forez;63
246300701;Clermont Auvergne Métropole;63
200066637;CC Hautes Terres;15
246300966;CC du Massif du Sancy;63
200072999;CC du Grand Langres;52
200068658;CA de Chaumont, du Bassin Nogentais et du Bassin de Bologne Vignory Froncles;52
200068369;CC de Mirecourt Dompaire;88
200068773;CC des Vosges Côté Sud Ouest;88
200030526;CC du Ried de Marckolsheim;67
242500361;CA du Grand Besançon;25
200010650;CA du Grand Dole;39
200041853;CC du Pays de Montbozon et du Chanois;70
242101509;CC Rives de Saône;21
242000503;CC Celavu-Prunelli;2A
242504371;CC du Pays de Sancey-Belleherbe;25
243900420;CC du Val d'Amour;39
200067486;CC Bouzonvillois-Trois Frontières;57
200069672;CC du Ternois;62
243200409;CC du Bas Armagnac;32
246500573;CC Aure-Louron;65
242900702;CC du Pays Bigouden Sud;29
243301389;CC Médullienne;33
246400337;CC de la Vallée d'Ossau;64
241927201;CA Tulle Agglo;19
200043776;CC Pyrénées Audoises;11
200018166;CC Le Grésivaudan;38
200066330;CC Terres du Haut-Berry;18
200066330;CC Terres du Haut-Berry;18
200073419;CA du Puy-en-Velay;43
241500255;CC du Pays Gentiane;15
200072304;CC Vallée de l'Ubaye - Serre-Ponçon;4
248300543;Métropole Toulon-Provence-Méditerranée;83
200070738;CC Mad et Moselle;54
200066835;CC de Sézanne-Sud Ouest Marnais;51
200044253;CC du Bassin de Joinville en Champagne;52
247103765;CC Entre Saône et Grosne;71
200006682;CA Beaune, Côte et Sud - Communauté Beaune-Chagny-Nolay;21
200067841;CC de l'Alsace Bossue;67
246800569;CC de la Région de Guebwiller;68
200039758;CC Avallon, Vézelay, Morvan;89
200069615;CC Bresse Haute Seille;39
242101509;CC Rives de Saône;21
200034700;CA Durance-Lubéron-Verdon Agglomération;4
240500439;CC du Briançonnais;5
240600593;CC du Pays des Paillons;6
200066033;CC Sud Alsace Largue;68
200066009;CA Mulhouse Alsace Agglomération;68
246800494;CC du Pays de Rouffach, Vignobles et Châteaux;68
242504181;CC des Portes du Haut-Doubs;25
249000241;CC du Sud Territoire;90
242504181;CC des Portes du Haut-Doubs;25
200066363;CC de la Haute Ariège;9
200068484;CC des Causses à l'Aubrac;12
200006930;CC du Haut-Allier;48
200044014;CC Creuse Grand Sud;23
200039204;CC de Lacq-Orthez;64
248300550;CC Coeur du Var;83
200073401;CC Mézenc-Loire-Meygal;43
200040350;CC Bugey Sud;1
200073393;CC des Rives du Haut-Allier;43
241500255;CC du Pays Gentiane;15
247400773;CC des Sources du Lac d'Annecy;74
200067841;CC de l'Alsace Bossue;67
200067841;CC de l'Alsace Bossue;67
200067502;CA Saint-Avold Synergie;57
200068757;CA d'Épinal;88
249000241;CC du Sud Territoire;90
249000241;CC du Sud Territoire;90
200026573;CC Haut-Jura Saint-Claude;39
245100615;CC de la Grande Vallée de la Marne;51
200069664;CC Meuse Rognon;52
200027308;CC d'Auberive Vingeanne et Montsaugeonnais;52
247100290;CU Le Creusot Montceau-les-Mines;71
200070894;CC de Gevrey-Chambertin et de Nuits-Saint-Georges;21
200067692;CC Tannay-Brinon-Corbigny;58
200068674;CA Grand Lac;73
246600399;CC Pyrénées Cerdagne;66
200072635;CC Pyrénées Haut Garonnaises;31
200067510;CC Monts et Vallées Ouest Creuse;23
200066769;CC Midi Corrézien;19
200030195;Métropole Nice Côte d'Azur;6
248400335;CC Vaison Ventoux;84
248300493;CA Dracénoise;83
200039931;CC Alpes d'Azur;6
200070761;CC Ambert Livradois Forez;63
243900719;CC du Pays des Lacs;39
200069623;CC Champagnole Nozeroy Jura;39
242500361;CA du Grand Besançon;25
200068666;CA de Saint-Dizier Der et Blaise;52
200073401;CC Mézenc-Loire-Meygal;43
244200770;Saint-Etienne Métropole;42
200040624;CC Pays d'Apt-Luberon;84
200071579;CC Bresse Louhannaise Intercom';71
200072825;CC Mirebellois et Fontenois;21
200067429;CC Haut Nivernais-Val d'Yonne;58
200067882;CC Bazois Loire Morvan;58
245100615;CC de la Grande Vallée de la Marne;51
200043438;CC de la Moivre à la Coole;51
241000405;CC de la Région de Bar-sur-Aube;10
200042992;CC Perthois-Bocage et Der;51
200066140;CC de l'Aire à l'Argonne;55
200042000;CC Bruyères-Vallons des Vosges;88
242101434;CC du Pays Châtillonnais;21
242101491;CC du Montbardois;21
200069615;CC Bresse Haute Seille;39
200069565;CC des Lacs et Montagnes du Haut-Doubs;25
200071595;CC Arbois, Poligny, Salins, Coeur du Jura;39
200067932;CA Golfe du Morbihan - Vannes Agglomération;56
243500725;CC Côte d'Émeraude;35
200044014;CC Creuse Grand Sud;23
200070803;CC des Coteaux du Val-d'Arros;65
200070365;CC Corbières Salanque Méditerranée;11
200070811;CC Pyrénées Vallées des Gaves;65
200070795;CC du Pays de Trie et du Magnoac;65
200067171;CC Aubrac, Carladez et Viadène;12
200073393;CC des Rives du Haut-Allier;43
244301123;CC des Pays de Cayres et de Pradelles;43
244200622;CC des Monts du Pilat;42
200042935;CA Haut - Bugey Agglomération;1
200066025;CC Pays Rhin - Brisach;68
241800457;CC Fercher Pays Florentais;18
244800405;CC Coeur de Lozère;48
200070795;CC du Pays de Trie et du Magnoac;65
243000643;CA de Nîmes Métropole;30
200035129;CC de Cèze Cévennes;30
200040111;CC Coeur de Chartreuse;73
247300361;CC du Canton de la Chambre;73
200023075;CC du Pays de Maîche;25
247104094;CC Sud Côte Chalonnaise;71
248900334;CA du Grand Sénonais;89
247700701;CC Brie Nangissienne;77
200026573;CC Haut-Jura Saint-Claude;39
200071165;CA Les Sables d'Olonne Agglomération;85
200071066;CA de Saint-Dié-Des-Vosges;88
245700133;CC du District Urbain de Faulquemont (Duf);57
200068559;CC de l'Ouest Vosgien;88
200067452;CC du Guillestrois et du Queyras;5
200069995;CC Médoc Coeur de Presqu'ile;33
244000873;CC des Grands Lacs;40
247200629;CC du Val de Sarthe;72
200066363;CC de la Haute Ariège;9
200067171;CC Aubrac, Carladez et Viadène;12
200068229;CC des Baronnies en Drôme Provençale;26
243800745;CC de l'Oisans;38
247000706;CC du Pays Riolais;70
200006682;CA Beaune, Côte et Sud - Communauté Beaune-Chagny-Nolay;21
243900412;CC Jura Sud;39
